VedatMilor
…
library(dplyr)
library(wordcloud)
raw_data <- readxl::read_excel("C:\\Users\\Deniz\\Desktop\\vedo2.xlsx")

## New names:
## * `` -> ...1

raw_data$Rating <- as.numeric(raw_data$Rating)

raw_data %>% 
 tbl_df()

## # A tibble: 98 x 11
##     ...1 id    Name  Country City  State Rating Type  `vegan/vejetary~
##    <dbl> <chr> <chr> <chr>   <chr> <chr>  <dbl> <chr>            <dbl>
##  1     1 4b7d~ L'Am~ France  Paris le-~    8.4 fren~                0
##  2     2 5630~ Le C~ France  Paris le-~    7.6 fren~                0
##  3     3 4e53~ Hedo~ United~ Lond~ Grea~    7.7 fren~                0
##  4     4 4adc~ Arp~ France  Paris le-~    8.4 fren~                1
##  5     5 4e36~ Rist~ Italy   Cast~ Abru~    7.5 ital~                0
##  6     6 4c07~ Le P~ France  Avig~ Prov~    0   fren~                0
##  7     7 4da0~ D'be~ Spain   Grove Gali~    8.8 seaf~                0
##  8     8 5025~ Kara~ Turkey  sta~ sta~    8.5 turk~                0
##  9     9 50b1~ Pepe~ Italy   Caia~ Camp~    9   pizz~                1
## 10    10 5bd5~ Kimo~ Japan   Tokyo Tokyo    0   japa~                0
## # ... with 88 more rows, and 2 more variables: `Price Range` <dbl>, `Vedat
## #   Milor's Rate` <dbl>
…
raw_data %>%
  filter(Rating < `Vedat Milor's Rate`)

## # A tibble: 32 x 11
##     ...1 id    Name  Country City  State Rating Type  `vegan/vejetary~
##    <dbl> <chr> <chr> <chr>   <chr> <chr>  <dbl> <chr>            <dbl>
##  1     1 4b7d~ L'Am~ France  Paris le-~    8.4 fren~                0
##  2     2 5630~ Le C~ France  Paris le-~    7.6 fren~                0
##  3     3 4e53~ Hedo~ United~ Lond~ Grea~    7.7 fren~                0
##  4     4 4adc~ Arp~ France  Paris le-~    8.4 fren~                1
##  5     5 4e36~ Rist~ Italy   Cast~ Abru~    7.5 ital~                0
##  6     6 4c07~ Le P~ France  Avig~ Prov~    0   fren~                0
##  7    10 5bd5~ Kimo~ Japan   Tokyo Tokyo    0   japa~                0
##  8    11 5092~ Sais~ United~ San ~ CA       8.2 new ~                0
##  9    12 587c~ CHIU~ Japan   Tokyo Tokyo    0   japa~                0
## 10    14 4ca0~ Trat~ Italy   Pogg~ Abru~    0   oste~                0
## # ... with 22 more rows, and 2 more variables: `Price Range` <dbl>, `Vedat
## #   Milor's Rate` <dbl>

value <- raw_data %>%
  transmute(Name, Rating, `Vedat Milor's Rate`,realValue = ifelse(Rating<`Vedat Milor's Rate`,"Overrated","Undervalued")) %>%
  print()

## # A tibble: 98 x 4
##    Name                        Rating `Vedat Milor's Rate` realValue  
##    <chr>                        <dbl>                <dbl> <chr>      
##  1 L'Ambroisie                    8.4                 10   Overrated  
##  2 Le Clarence                    7.6                  9   Overrated  
##  3 Hedone                         7.7                  9.7 Overrated  
##  4 Arpge                         8.4                 10   Overrated  
##  5 Ristorante Reale               7.5                  8.5 Overrated  
##  6 Le Petit Nice                  0                    6   Overrated  
##  7 D'berto                        8.8                  8.5 Undervalued
##  8 Karadeniz Tadal Pide Salonu    8.5                  8   Undervalued
##  9 Pepe In Grani                  9                    8   Undervalued
## 10 Kimoto                         0                    5   Overrated  
## # ... with 88 more rows
…
Here in this table, we classified restaurants as their types and it shows that Vedat Milors favorite kitchens are Italian and French. Turkish, Spanish and American kitchens are following them.

raw_data %>%
  count(Type, wt=NULL) %>%
  arrange(desc(n))

## # A tibble: 28 x 2
##    Type             n
##    <chr>        <int>
##  1 italian         19
##  2 french          14
##  3 seafood         11
##  4 restaurant       9
##  5 turkish          6
##  6 new american     4
##  7 pizza place      4
##  8 spanish          4
##  9 steakhouse       3
## 10 burger joint     2
## # ... with 18 more rows
…
raw_data %>%
  transmute(Name, Difference = (abs(Rating-`Vedat Milor's Rate`))) %>%
  arrange(desc(Difference))

## # A tibble: 98 x 2
##    Name                  Difference
##    <chr>                      <dbl>
##  1 Yolgeen (Lome Ky)         8  
##  2 CHIUnE                       7  
##  3 Le Lampare                   7  
##  4 Le Petit Nice                6  
##  5 Trattoria della Posta        6  
##  6 Il Pomo D'Oro                6  
##  7 Restaurante Fagollaga        6  
##  8 La Broche des Ours           6  
##  9 Kimoto                       5  
## 10 Delfina                      3.8
## # ... with 88 more rows

Than we create another data set named as value. This is for compering ratigs which are foursquare users and Vedat Milors. When Vedat Milor rating restaurant higher than the foursquare users, we say its undervalued, and when Vedat Milor rating it lower than foursquare users it is overrated. First we graphed it as rating-restaurant name and Vedat Milors rating-restaurant name, than we also made another graph for compering on the same graph.

value <- raw_data %>%
  transmute(Name, Rating, `Vedat Milor's Rate`,realValue = ifelse(Rating<`Vedat Milor's Rate`,"Overrated","Undervalued")) %>%
  print()

## # A tibble: 98 x 4
##    Name                        Rating `Vedat Milor's Rate` realValue  
##    <chr>                        <dbl>                <dbl> <chr>      
##  1 L'Ambroisie                    8.4                 10   Overrated  
##  2 Le Clarence                    7.6                  9   Overrated  
##  3 Hedone                         7.7                  9.7 Overrated  
##  4 Arpge                         8.4                 10   Overrated  
##  5 Ristorante Reale               7.5                  8.5 Overrated  
##  6 Le Petit Nice                  0                    6   Overrated  
##  7 D'berto                        8.8                  8.5 Undervalued
##  8 Karadeniz Tadal Pide Salonu    8.5                  8   Undervalued
##  9 Pepe In Grani                  9                    8   Undervalued
## 10 Kimoto                         0                    5   Overrated  
## # ... with 88 more rows
…
